{
    "version": "v2",
    "language": "en",
    "artifactsDir": "artifacts",
    "contractsDir": "contracts",
    "accounts": {
        "bob": {
            "balance": {
                "amount": "3_000_000_000",
                "units": "mutez"
            }
        },
        "alice": {
            "balance": {
                "amount": "3_000_000_000",
                "units": "mutez"
            }
        },
        "john": {
            "balance": {
                "amount": "3_000_000_000",
                "units": "mutez"
            }
        },
        "jane": {
            "balance": {
                "amount": "3_000_000_000",
                "units": "mutez"
            }
        },
        "joe": {
            "balance": {
                "amount": "3_000_000_000",
                "units": "mutez"
            }
        }
    },
    "environmentDefault": "development",
    "environments": {
        "development": {
            "type": "flextesa",
            "label": "Local Tezos Sandbox"
        },
        "testing": {
            "type": "simple",
            "label": "ghostnet",
            "rpcUrl": "https://ghostnet.ecadinfra.com"
        },
        "production": {
            "type": "simple",
            "label": "mainnet",
            "rpcUrl": "https://mainnet.api.tez.ie"
        }
    },
    "plugins": [
        {
            "type": "npm",
            "name": "@taqueria/plugin-core"
        },
        {
            "type": "npm",
            "name": "@taqueria/plugin-archetype"
        },
        {
            "type": "npm",
            "name": "@taqueria/plugin-flextesa"
        },
        {
            "type": "npm",
            "name": "@taqueria/plugin-taquito"
        },
        {
            "type": "npm",
            "name": "@taqueria/plugin-contract-types"
        }
    ]
}